Quarto + RMD + Github Pages Test – Analysis So Far
…
Reading in the best BLAST hit info:

amoA_organism_info <- readxl::read_xlsx(here("data", "amoa_mfp_qpcr_org_accessions.xlsx"), sheet = 5) %>% 
  select(-c(contains(c("forward", "reverse", "notes")))) 

Counts of best BLAST hits:

amoA_organism_info %>% 
  count(best_blast_hits, sort = TRUE) 

# A tibble: 25 x 2
   best_blast_hits                               n
   <chr>                                     <int>
 1 Nitrosolobus multiformis AmoA (amoA) gene    10
 2 Nitrosospira sp. En13 AmoA                    9
 3 Nitrosospira multiformis ATCC 25196           7
 4 Nitrosospira sp. Wyke8 AmoA                   7
 5 Nitrosospira lacus strain APG3                6
 6 Nitrosospira sp. Np39-19                      6
 7 Nitrosospira sp. Wyke2                        4
 8 Nitrosospira sp. NpAV                         3
 9 Nitrosomonas sp. JL21                         2
10 Nitrosospira briensis                         2
# … with 15 more rows
…
Joining, by = "sample_id"

Joining, by = c("sample_id", "Nitrosolobus multiformis AmoA (amoA) gene", "Nitrosospira briensis", "Nitrosospira lacus strain APG3", "Nitrosospira multiformis AmoA (amoA) gene", "Nitrosospira multiformis ATCC 25196", "Nitrosospira sp. 9SS1", "Nitrosospira sp. amoA and amoB", "Nitrosospira sp. En13 AmoA", "Nitrosospira sp. GS832", "Nitrosospira sp. NIJS16", "Nitrosospira sp. Np39-19", "Nitrosospira sp. NpAV", "Nitrosospira sp. PJA1", "Nitrosospira sp. strain Nsp.1", "Nitrosospira sp. strain Nsp.5", "Nitrosospira sp. strain Nsp.5 amoA", "Nitrosospira sp. TCH711", "Nitrosospira sp. Wyke2", "Nitrosospira sp. Wyke8 AmoA", "Nitrosovibrio sp. RY3C", "Nitrospira sp. amoA and amoB genes")

bbh_level_counts %>% 
  pivot_longer(cols = 2:22) 

# A tibble: 1,995 x 9
   sample_id fert_level crop  timepoint doe   addition field_rep name      value
   <chr>     <fct>      <fct> <fct>     <fct> <fct>    <fct>     <chr>     <dbl>
 1 13b       336        corn  b         5     control  1         Nitrosol…     6
 2 13b       336        corn  b         5     control  1         Nitrosos…     1
 3 13b       336        corn  b         5     control  1         Nitrosos…     2
 4 13b       336        corn  b         5     control  1         Nitrosos…     1
 5 13b       336        corn  b         5     control  1         Nitrosos…     5
 6 13b       336        corn  b         5     control  1         Nitrosos…     1
 7 13b       336        corn  b         5     control  1         Nitrosos…     1
 8 13b       336        corn  b         5     control  1         Nitrosos…     3
 9 13b       336        corn  b         5     control  1         Nitrosos…     0
10 13b       336        corn  b         5     control  1         Nitrosos…     1
# … with 1,985 more rows
…
